…
    if (length(names(node$children)) > 0) {
        # Add this node and children to edge list.
        el <- bind_rows(el, tibble(from = node$code, to = names(node$children)))
    } 
    return(el)
}
```

``` r
add_children_to_dag(oncotree_json[[1]], tibble())
```

    #> # A tibble: 32 x 2
    #>    from   to           
    #>    <chr>  <chr>        
    #>  1 TISSUE OVARY        
    #>  2 TISSUE LYMPH        
    #>  3 TISSUE SOFT_TISSUE  
    #>  4 TISSUE THYROID      
    #>  5 TISSUE PLEURA       
    #>  6 TISSUE PANCREAS     
    #>  7 TISSUE BILIARY_TRACT
    #>  8 TISSUE BREAST       
    #>  9 TISSUE HEAD_NECK    
    #> 10 TISSUE EYE          
    #> # … with 22 more rows
…
And that’s it\! We should now be able to create the entire DAG.

``` r
# reset `NODE_INFO`
NODE_INFO <- tibble()

# Run the recursive algorithm.
oncotree_el <- add_children_to_dag(oncotree_json[[1]], tibble())
oncotree_el
```

    #> # A tibble: 867 x 2
    #>    from   to           
    #>    <chr>  <chr>        
    #>  1 TISSUE OVARY        
    #>  2 TISSUE LYMPH        
    #>  3 TISSUE SOFT_TISSUE  
    #>  4 TISSUE THYROID      
    #>  5 TISSUE PLEURA       
    #>  6 TISSUE PANCREAS     
    #>  7 TISSUE BILIARY_TRACT
    #>  8 TISSUE BREAST       
    #>  9 TISSUE HEAD_NECK    
    #> 10 TISSUE EYE          
    #> # … with 857 more rows

``` r
NODE_INFO
```

    #> # A tibble: 868 x 6
    #>    code   description                tissue      main_type          color  level
    #>    <chr>  <chr>                      <chr>       <chr>              <chr>  <int>
    #>  1 TISSUE Tissue                     tissue      tissue             Black      0
    #>  2 OVARY  Ovary/Fallopian Tube       Ovary/Fall… Ovarian/Fallopian… Light…     1
    #>  3 OOVC   Ovarian Cancer, Other      Ovary/Fall… Ovarian Cancer     Light…     2
    #>  4 OCNOS  Ovarian Choriocarcinoma, … Ovary/Fall… Ovarian Cancer     Light…     3
    #>  5 HGONEC High-Grade Neuroendocrine… Ovary/Fall… Ovarian Cancer     Light…     3
    #>  6 HGSFT  High-Grade Serous Fallopi… Ovary/Fall… Ovarian Cancer     Light…     3
    #>  7 OVT    Ovarian Epithelial Tumor   Ovary/Fall… Ovarian Cancer     Light…     2
    #>  8 EBOV   Endometrioid Borderlin Ov… Ovary/Fall… Ovarian Cancer     Light…     3
    #>  9 SOC    Serous Ovarian Cancer      Ovary/Fall… Ovarian Cancer     Light…     3
    #> 10 HGSOC  High-Grade Serous Ovarian… Ovary/Fall… Ovarian Cancer     Light…     4
    #> # … with 858 more rows
…
